module codeberg.org/xoxarle/markov

go 1.17

require (
	github.com/gosimple/slug v1.12.0 // indirect
	github.com/gosimple/unidecode v1.0.1 // indirect
	github.com/yuin/goldmark v1.4.1 // indirect
	golang.org/x/mod v0.5.1 // indirect
	golang.org/x/net v0.0.0-20211015210444-4f30a5c0130f // indirect
	golang.org/x/sys v0.0.0-20211019181941-9d821ace8654 // indirect
	golang.org/x/tools v0.1.8 // indirect
	golang.org/x/xerrors v0.0.0-20200804184101-5ec99f83aff1 // indirect
)
